sim/cpu_wave.vcd
$date
	Mon Sep 08 16:49:17 2025
$end
$version
	Icarus Verilog
$end
$timescale
	1ps
$end
$scope module tb_top $end
$var reg 1 ! clk $end
$var reg 1 " reset $end
$scope module DUT $end
$var wire 1 ! clk $end
$var wire 1 " reset $end
$var wire 1 # zero_top $end
$var wire 1 $ sel2_top $end
$var wire 32 % rd2_top [31:0] $end
$var wire 32 & rd1_top [31:0] $end
$var wire 32 ' mux1_top [31:0] $end
$var wire 32 ( instruction_top [31:0] $end
$var wire 1 ) branch_top $end
$var wire 32 * address_top [31:0] $end
$var wire 32 + Writeback_top [31:0] $end
$var wire 32 , Sum_outTop [31:0] $end
$var wire 1 - RegWrite_top $end
$var wire 32 . PCin_top [31:0] $end
$var wire 32 / PC_top [31:0] $end
$var wire 32 0 NextPC_top [31:0] $end
$var wire 1 1 MemtoReg_top $end
$var wire 1 2 MemWrite_top $end
$var wire 1 3 MemRead_top $end
$var wire 32 4 MemData_top [31:0] $end
$var wire 32 5 ImmExp_top [31:0] $end
$var wire 4 6 Control_top [3:0] $end
$var wire 1 7 ALUSrc_top $end
$var wire 2 8 ALUOp_top [1:0] $end
$scope module AC $end
$var wire 3 9 func3 [2:0] $end
$var wire 1 : func7 $end
$var wire 2 ; ALUOp [1:0] $end
$var reg 4 < Control_out [3:0] $end
$upscope $end
$scope module ADD $end
$var wire 32 = out [31:0] $end
$var wire 32 > in2 [31:0] $end
$var wire 32 ? in1 [31:0] $end
$upscope $end
$scope module ALU $end
$var wire 4 @ Control_in [3:0] $end
$var wire 1 # zero $end
$var wire 32 A B [31:0] $end
$var wire 32 B A [31:0] $end
$var reg 32 C ALU_result [31:0] $end
$upscope $end
$scope module ALU_Mux $end
$var wire 1 7 sel $end
$var wire 32 D out [31:0] $end
$var wire 32 E B [31:0] $end
$var wire 32 F A [31:0] $end
$upscope $end
$scope module ANDb $end
$var wire 1 $ out $end
$var wire 1 # zero $end
$var wire 1 ) branch $end
$upscope $end
$scope module CU $end
$var wire 7 G instruction [6:0] $end
$var reg 2 H ALUOp [1:0] $end
$var reg 1 7 ALUSrc $end
$var reg 1 ) Branch $end
$var reg 1 3 MemRead $end
$var reg 1 2 MemWrite $end
$var reg 1 1 MemtoReg $end
$var reg 1 - RegWrite $end
$upscope $end
$scope module DMem $end
$var wire 1 3 MemRead $end
$var wire 1 2 MemWrite $end
$var wire 1 ! clk $end
$var wire 6 I rd_address [5:0] $end
$var wire 1 " reset $end
$var wire 32 J wr_data [31:0] $end
$var wire 32 K MemData_out [31:0] $end
$var integer 32 L i [31:0] $end
$upscope $end
$scope module I_Mem $end
$var wire 6 M Address [5:0] $end
$var wire 32 N Instruct [31:0] $end
$upscope $end
$scope module Immediate $end
$var wire 7 O Opcode [6:0] $end
$var wire 32 P instruction [31:0] $end
$var reg 32 Q ImmExt [31:0] $end
$upscope $end
$scope module Mux2 $end
$var wire 32 R B [31:0] $end
$var wire 1 $ sel $end
$var wire 32 S out [31:0] $end
$var wire 32 T A [31:0] $end
$upscope $end
$scope module Mux3 $end
$var wire 32 U A [31:0] $end
$var wire 32 V B [31:0] $end
$var wire 1 1 sel $end
$var wire 32 W out [31:0] $end
$upscope $end
$scope module PC $end
$var wire 32 X PC_in [31:0] $end
$var wire 1 ! clk $end
$var wire 1 " reset $end
$var parameter 32 Y Width $end
$var reg 32 Z PC_out [31:0] $end
$upscope $end
$scope module PC_Adder $end
$var wire 32 [ fromPC [31:0] $end
$var wire 32 \ NextPC [31:0] $end
$upscope $end
$scope module R_File $end
$var wire 1 - RegWrite $end
$var wire 1 ! clk $end
$var wire 5 ] rdReg1 [4:0] $end
$var wire 5 ^ rdReg2 [4:0] $end
$var wire 1 " reset $end
$var wire 32 _ wrData [31:0] $end
$var wire 5 ` wrReg [4:0] $end
$var wire 32 a rdData2 [31:0] $end
$var wire 32 b rdData1 [31:0] $end
$var integer 32 c i [31:0] $end
$upscope $end
$upscope $end
$upscope $end
$enddefinitions $end
$comment Show the parameter values. $end
$dumpall
b100000 Y
$end
#0
$dumpvars
b100000 c
bx b
bx a
bx `
bx _
bx ^
bx ]
bx \
bx [
bx Z
bx X
bx W
bx V
bx U
bx T
bx S
bx R
bx Q
bx P
bx O
bx N
bx M
b1000000 L
bx K
bx J
bx I
bx H
bx G
bx F
bx E
bx D
bx C
bx B
bx A
bx @
bx ?
bx >
bx =
bx <
bx ;
x:
bx 9
bx 8
x7
bx 6
bx 5
bx 4
x3
x2
x1
bx 0
bx /
bx .
x-
bx ,
bx +
bx *
x)
bx (
bx '
bx &
bx %
x$
x#
1"
0!
$end
#5000
b101 +
b101 W
b101 _
b1 I
0#
b101 *
b101 C
b101 U
b0 4
b0 K
b0 V
0$
b101 '
b101 A
b101 D
b100 .
b100 S
b100 X
b10 6
b10 <
b10 @
17
01
1-
03
02
0)
b10 8
b10 ;
b10 H
b0 %
b0 F
b0 J
b0 a
b0 &
b0 B
b0 b
b101 ,
b101 =
b101 R
b101 5
b101 >
b101 E
b101 Q
b0 9
0:
b10011 G
b10011 O
b1 `
b101 ^
b0 ]
b10100000000000010010011 (
b10100000000000010010011 N
b10100000000000010010011 P
b0 M
b100 0
b100 T
b100 \
b0 /
b0 ?
b0 Z
b0 [
b1000000 L
b100000 c
1!
#10000
0!
#15000
b100000 c
b1000000 L
1!
#20000
0!
0"
#25000
b1010 +
b1010 W
b1010 _
b10 I
b1010 *
b1010 C
b1010 U
b1010 '
b1010 A
b1010 D
b1010 5
b1010 >
b1010 E
b1010 Q
b10 `
b1010 ^
b1000 .
b1000 S
b1000 X
b101000000000000100010011 (
b101000000000000100010011 N
b101000000000000100010011 P
b1 M
b1000 0
b1000 T
b1000 \
b1110 ,
b1110 =
b1110 R
b100 /
b100 ?
b100 Z
b100 [
1!
#30000
0!
#35000
b1111 +
b1111 W
b1111 _
b11 I
b1111 *
b1111 C
b1111 U
b1010 '
b1010 A
b1010 D
07
b1010 %
b1010 F
b1010 J
b1010 a
b101 &
b101 B
b101 b
b0 5
b0 >
b0 E
b0 Q
b110011 G
b110011 O
b11 `
b10 ^
b1 ]
b1100 .
b1100 S
b1100 X
b1000001000000110110011 (
b1000001000000110110011 N
b1000001000000110110011 P
b10 M
b1100 0
b1100 T
b1100 \
b1000 ,
b1000 =
b1000 R
b1000 /
b1000 ?
b1000 Z
b1000 [
1!
#40000
0!
#45000
1#
b0 +
b0 W
b0 _
b0 I
b0 '
b0 A
b0 D
b0 *
b0 C
b0 U
17
0-
12
b0 8
b0 ;
b0 H
b1111 %
b1111 F
b1111 J
b1111 a
b0 &
b0 B
b0 b
b10 9
b100011 G
b100011 O
b0 `
b11 ^
b0 ]
b10000 .
b10000 S
b10000 X
b1100000010000000100011 (
b1100000010000000100011 N
b1100000010000000100011 P
b11 M
b10000 0
b10000 T
b10000 \
b1100 ,
b1100 =
b1100 R
b1100 /
b1100 ?
b1100 Z
b1100 [
1!
#50000
0!
#55000
b0 +
b0 W
b0 _
b0 I
1#
b0 *
b0 C
b0 U
1$
b0 '
b0 A
b0 D
b110 6
b110 <
b110 @
07
02
1)
b1 8
b1 ;
b1 H
b0 %
b0 F
b0 J
b0 a
b11111111111111111111111111111100 5
b11111111111111111111111111111100 >
b11111111111111111111111111111100 E
b11111111111111111111111111111100 Q
b0 9
1:
b1100011 G
b1100011 O
b11101 `
b0 ^
b1100 .
b1100 S
b1100 X
b11111110000000000000111011100011 (
b11111110000000000000111011100011 N
b11111110000000000000111011100011 P
b100 M
b10100 0
b10100 T
b10100 \
b1100 ,
b1100 =
b1100 R
b10000 /
b10000 ?
b10000 Z
b10000 [
1!
#60000
0!
#65000
b0 +
b0 W
b0 _
b0 I
1#
b0 *
b0 C
b0 U
0$
b0 '
b0 A
b0 D
b10 6
b10 <
b10 @
17
12
0)
b0 8
b0 ;
b0 H
b1111 %
b1111 F
b1111 J
b1111 a
b0 5
b0 >
b0 E
b0 Q
b10 9
0:
b100011 G
b100011 O
b0 `
b11 ^
b10000 .
b10000 S
b10000 X
b1100000010000000100011 (
b1100000010000000100011 N
b1100000010000000100011 P
b11 M
b10000 0
b10000 T
b10000 \
b1100 ,
b1100 =
b1100 R
b1100 /
b1100 ?
b1100 Z
b1100 [
1!
#70000
0!
#75000
b0 +
b0 W
b0 _
b0 I
1#
b0 *
b0 C
b0 U
1$
b0 '
b0 A
b0 D
b110 6
b110 <
b110 @
07
02
1)
b1 8
b1 ;
b1 H
b0 %
b0 F
b0 J
b0 a
b11111111111111111111111111111100 5
b11111111111111111111111111111100 >
b11111111111111111111111111111100 E
b11111111111111111111111111111100 Q
b0 9
1:
b1100011 G
b1100011 O
b11101 `
b0 ^
b1100 .
b1100 S
b1100 X
b11111110000000000000111011100011 (
b11111110000000000000111011100011 N
b11111110000000000000111011100011 P
b100 M
b10100 0
b10100 T
b10100 \
b1100 ,
b1100 =
b1100 R
b10000 /
b10000 ?
b10000 Z
b10000 [
1!
#80000
0!
#85000
b0 +
b0 W
b0 _
b0 I
1#
b0 *
b0 C
b0 U
0$
b0 '
b0 A
b0 D
b10 6
b10 <
b10 @
17
12
0)
b0 8
b0 ;
b0 H
b1111 %
b1111 F
b1111 J
b1111 a
b0 5
b0 >
b0 E
b0 Q
b10 9
0:
b100011 G
b100011 O
b0 `
b11 ^
b10000 .
b10000 S
b10000 X
b1100000010000000100011 (
b1100000010000000100011 N
b1100000010000000100011 P
b11 M
b10000 0
b10000 T
b10000 \
b1100 ,
b1100 =
b1100 R
b1100 /
b1100 ?
b1100 Z
b1100 [
1!
#90000
0!
#95000
b0 +
b0 W
b0 _
b0 I
1#
b0 *
b0 C
b0 U
1$
b0 '
b0 A
b0 D
b110 6
b110 <
b110 @
07
02
1)
b1 8
b1 ;
b1 H
b0 %
b0 F
b0 J
b0 a
b11111111111111111111111111111100 5
b11111111111111111111111111111100 >
b11111111111111111111111111111100 E
b11111111111111111111111111111100 Q
b0 9
1:
b1100011 G
b1100011 O
b11101 `
b0 ^
b1100 .
b1100 S
b1100 X
b11111110000000000000111011100011 (
b11111110000000000000111011100011 N
b11111110000000000000111011100011 P
b100 M
b10100 0
b10100 T
b10100 \
b1100 ,
b1100 =
b1100 R
b10000 /
b10000 ?
b10000 Z
b10000 [
1!
#100000
0!
#105000
b0 +
b0 W
b0 _
b0 I
1#
b0 *
b0 C
b0 U
0$
b0 '
b0 A
b0 D
b10 6
b10 <
b10 @
17
12
0)
b0 8
b0 ;
b0 H
b1111 %
b1111 F
b1111 J
b1111 a
b0 5
b0 >
b0 E
b0 Q
b10 9
0:
b100011 G
b100011 O
b0 `
b11 ^
b10000 .
b10000 S
b10000 X
b1100000010000000100011 (
b1100000010000000100011 N
b1100000010000000100011 P
b11 M
b10000 0
b10000 T
b10000 \
b1100 ,
b1100 =
b1100 R
b1100 /
b1100 ?
b1100 Z
b1100 [
1!
#110000
0!
#115000
b0 +
b0 W
b0 _
b0 I
1#
b0 *
b0 C
b0 U
1$
b0 '
b0 A
b0 D
b110 6
b110 <
b110 @
07
02
1)
b1 8
b1 ;
b1 H
b0 %
b0 F
b0 J
b0 a
b11111111111111111111111111111100 5
b11111111111111111111111111111100 >
b11111111111111111111111111111100 E
b11111111111111111111111111111100 Q
b0 9
1:
b1100011 G
b1100011 O
b11101 `
b0 ^
b1100 .
b1100 S
b1100 X
b11111110000000000000111011100011 (
b11111110000000000000111011100011 N
b11111110000000000000111011100011 P
b100 M
b10100 0
b10100 T
b10100 \
b1100 ,
b1100 =
b1100 R
b10000 /
b10000 ?
b10000 Z
b10000 [
1!
#120000
0!
#125000
b0 +
b0 W
b0 _
b0 I
1#
b0 *
b0 C
b0 U
0$
b0 '
b0 A
b0 D
b10 6
b10 <
b10 @
17
12
0)
b0 8
b0 ;
b0 H
b1111 %
b1111 F
b1111 J
b1111 a
b0 5
b0 >
b0 E
b0 Q
b10 9
0:
b100011 G
b100011 O
b0 `
b11 ^
b10000 .
b10000 S
b10000 X
b1100000010000000100011 (
b1100000010000000100011 N
b1100000010000000100011 P
b11 M
b10000 0
b10000 T
b10000 \
b1100 ,
b1100 =
b1100 R
b1100 /
b1100 ?
b1100 Z
b1100 [
1!
#130000
0!
#135000
b0 +
b0 W
b0 _
b0 I
1#
b0 *
b0 C
b0 U
1$
b0 '
b0 A
b0 D
b110 6
b110 <
b110 @
07
02
1)
b1 8
b1 ;
b1 H
b0 %
b0 F
b0 J
b0 a
b11111111111111111111111111111100 5
b11111111111111111111111111111100 >
b11111111111111111111111111111100 E
b11111111111111111111111111111100 Q
b0 9
1:
b1100011 G
b1100011 O
b11101 `
b0 ^
b1100 .
b1100 S
b1100 X
b11111110000000000000111011100011 (
b11111110000000000000111011100011 N
b11111110000000000000111011100011 P
b100 M
b10100 0
b10100 T
b10100 \
b1100 ,
b1100 =
b1100 R
b10000 /
b10000 ?
b10000 Z
b10000 [
1!
#140000
0!
#145000
b0 +
b0 W
b0 _
b0 I
1#
b0 *
b0 C
b0 U
0$
b0 '
b0 A
b0 D
b10 6
b10 <
b10 @
17
12
0)
b0 8
b0 ;
b0 H
b1111 %
b1111 F
b1111 J
b1111 a
b0 5
b0 >
b0 E
b0 Q
b10 9
0:
b100011 G
b100011 O
b0 `
b11 ^
b10000 .
b10000 S
b10000 X
b1100000010000000100011 (
b1100000010000000100011 N
b1100000010000000100011 P
b11 M
b10000 0
b10000 T
b10000 \
b1100 ,
b1100 =
b1100 R
b1100 /
b1100 ?
b1100 Z
b1100 [
1!
#150000
0!
#155000
b0 +
b0 W
b0 _
b0 I
1#
b0 *
b0 C
b0 U
1$
b0 '
b0 A
b0 D
b110 6
b110 <
b110 @
07
02
1)
b1 8
b1 ;
b1 H
b0 %
b0 F
b0 J
b0 a
b11111111111111111111111111111100 5
b11111111111111111111111111111100 >
b11111111111111111111111111111100 E
b11111111111111111111111111111100 Q
b0 9
1:
b1100011 G
b1100011 O
b11101 `
b0 ^
b1100 .
b1100 S
b1100 X
b11111110000000000000111011100011 (
b11111110000000000000111011100011 N
b11111110000000000000111011100011 P
b100 M
b10100 0
b10100 T
b10100 \
b1100 ,
b1100 =
b1100 R
b10000 /
b10000 ?
b10000 Z
b10000 [
1!
#160000
0!
#165000
b0 +
b0 W
b0 _
b0 I
1#
b0 *
b0 C
b0 U
0$
b0 '
b0 A
b0 D
b10 6
b10 <
b10 @
17
12
0)
b0 8
b0 ;
b0 H
b1111 %
b1111 F
b1111 J
b1111 a
b0 5
b0 >
b0 E
b0 Q
b10 9
0:
b100011 G
b100011 O
b0 `
b11 ^
b10000 .
b10000 S
b10000 X
b1100000010000000100011 (
b1100000010000000100011 N
b1100000010000000100011 P
b11 M
b10000 0
b10000 T
b10000 \
b1100 ,
b1100 =
b1100 R
b1100 /
b1100 ?
b1100 Z
b1100 [
1!
#170000
0!
#175000
b0 +
b0 W
b0 _
b0 I
1#
b0 *
b0 C
b0 U
1$
b0 '
b0 A
b0 D
b110 6
b110 <
b110 @
07
02
1)
b1 8
b1 ;
b1 H
b0 %
b0 F
b0 J
b0 a
b11111111111111111111111111111100 5
b11111111111111111111111111111100 >
b11111111111111111111111111111100 E
b11111111111111111111111111111100 Q
b0 9
1:
b1100011 G
b1100011 O
b11101 `
b0 ^
b1100 .
b1100 S
b1100 X
b11111110000000000000111011100011 (
b11111110000000000000111011100011 N
b11111110000000000000111011100011 P
b100 M
b10100 0
b10100 T
b10100 \
b1100 ,
b1100 =
b1100 R
b10000 /
b10000 ?
b10000 Z
b10000 [
1!
#180000
0!
#185000
b0 +
b0 W
b0 _
b0 I
1#
b0 *
b0 C
b0 U
0$
b0 '
b0 A
b0 D
b10 6
b10 <
b10 @
17
12
0)
b0 8
b0 ;
b0 H
b1111 %
b1111 F
b1111 J
b1111 a
b0 5
b0 >
b0 E
b0 Q
b10 9
0:
b100011 G
b100011 O
b0 `
b11 ^
b10000 .
b10000 S
b10000 X
b1100000010000000100011 (
b1100000010000000100011 N
b1100000010000000100011 P
b11 M
b10000 0
b10000 T
b10000 \
b1100 ,
b1100 =
b1100 R
b1100 /
b1100 ?
b1100 Z
b1100 [
1!
#190000
0!
#195000
b0 +
b0 W
b0 _
b0 I
1#
b0 *
b0 C
b0 U
1$
b0 '
b0 A
b0 D
b110 6
b110 <
b110 @
07
02
1)
b1 8
b1 ;
b1 H
b0 %
b0 F
b0 J
b0 a
b11111111111111111111111111111100 5
b11111111111111111111111111111100 >
b11111111111111111111111111111100 E
b11111111111111111111111111111100 Q
b0 9
1:
b1100011 G
b1100011 O
b11101 `
b0 ^
b1100 .
b1100 S
b1100 X
b11111110000000000000111011100011 (
b11111110000000000000111011100011 N
b11111110000000000000111011100011 P
b100 M
b10100 0
b10100 T
b10100 \
b1100 ,
b1100 =
b1100 R
b10000 /
b10000 ?
b10000 Z
b10000 [
1!
#200000
0!
#205000
b0 +
b0 W
b0 _
b0 I
1#
b0 *
b0 C
b0 U
0$
b0 '
b0 A
b0 D
b10 6
b10 <
b10 @
17
12
0)
b0 8
b0 ;
b0 H
b1111 %
b1111 F
b1111 J
b1111 a
b0 5
b0 >
b0 E
b0 Q
b10 9
0:
b100011 G
b100011 O
b0 `
b11 ^
b10000 .
b10000 S
b10000 X
b1100000010000000100011 (
b1100000010000000100011 N
b1100000010000000100011 P
b11 M
b10000 0
b10000 T
b10000 \
b1100 ,
b1100 =
b1100 R
b1100 /
b1100 ?
b1100 Z
b1100 [
1!
#210000
0!
#215000
b0 +
b0 W
b0 _
b0 I
1#
b0 *
b0 C
b0 U
1$
b0 '
b0 A
b0 D
b110 6
b110 <
b110 @
07
02
1)
b1 8
b1 ;
b1 H
b0 %
b0 F
b0 J
b0 a
b11111111111111111111111111111100 5
b11111111111111111111111111111100 >
b11111111111111111111111111111100 E
b11111111111111111111111111111100 Q
b0 9
1:
b1100011 G
b1100011 O
b11101 `
b0 ^
b1100 .
b1100 S
b1100 X
b11111110000000000000111011100011 (
b11111110000000000000111011100011 N
b11111110000000000000111011100011 P
b100 M
b10100 0
b10100 T
b10100 \
b1100 ,
b1100 =
b1100 R
b10000 /
b10000 ?
b10000 Z
b10000 [
1!
